…
# h_adlb_worsen all high

    Code
      res
    Output
      # A tibble: 600 x 51
         STUDYID COUNTRY SITEID SUBJID   AGE SEX   ARMCD ARM      ACTAR~1 ACTARM RACE 
         <chr>   <fct>   <chr>  <chr>  <dbl> <fct> <fct> <fct>    <fct>   <fct>  <fct>
       1 AB12345 BRA     BRA-1  id-105  37.8 F     ARM A A: Drug~ ARM A   A: Dr~ ASIAN
       2 AB12345 BRA     BRA-1  id-105  37.8 F     ARM A A: Drug~ ARM A   A: Dr~ ASIAN
       3 AB12345 BRA     BRA-1  id-105  37.8 F     ARM A A: Drug~ ARM A   A: Dr~ ASIAN
       4 AB12345 BRA     BRA-1  id-171  29.8 F     ARM B B: Plac~ ARM B   B: Pl~ ASIAN
       5 AB12345 BRA     BRA-1  id-171  29.8 F     ARM B B: Plac~ ARM B   B: Pl~ ASIAN
       6 AB12345 BRA     BRA-1  id-171  29.8 F     ARM B B: Plac~ ARM B   B: Pl~ ASIAN
       7 AB12345 BRA     BRA-1  id-177  38.9 F     ARM B B: Plac~ ARM B   B: Pl~ ASIAN
       8 AB12345 BRA     BRA-1  id-177  38.9 F     ARM B B: Plac~ ARM B   B: Pl~ ASIAN
       9 AB12345 BRA     BRA-1  id-177  38.9 F     ARM B B: Plac~ ARM B   B: Pl~ ASIAN
      10 AB12345 BRA     BRA-1  id-23   41.3 F     ARM A A: Drug~ ARM A   A: Dr~ AMER~
      # ... with 590 more rows, 40 more variables: TRTSDTM <dttm>, TRTEDTM <dttm>,
      #   EOSDY <dbl>, STRATA1 <fct>, STRATA2 <fct>, BMRKR1 <dbl>, BMRKR2 <fct>,
      #   REGION1 <fct>, SAFFL <fct>, USUBJID <chr>, PARAM <fct>, AVISIT <fct>,
      #   AVAL <dbl>, LBCAT <fct>, PARAMCD <chr>, AVALU <fct>, AVISITN <dbl>,
      #   ABLFL2 <chr>, ABLFL <chr>, BASE <dbl>, BASETYPE <chr>, ANRIND <fct>,
      #   ANRLO <dbl>, ANRHI <dbl>, DTYPE <lgl>, ATOXGR <fct>, BTOXGR <fct>,
      #   ATOXDSCL <chr>, ATOXDSCH <chr>, ADTM <dttm>, ASPID <int>, LBSEQ <int>, ...

# h_adlb_worsen all low

    Code
      res
    Output
      # A tibble: 600 x 51
         STUDYID COUNTRY SITEID SUBJID   AGE SEX   ARMCD ARM      ACTAR~1 ACTARM RACE 
         <chr>   <fct>   <chr>  <chr>  <dbl> <fct> <fct> <fct>    <fct>   <fct>  <fct>
       1 AB12345 BRA     BRA-1  id-105  37.8 F     ARM A A: Drug~ ARM A   A: Dr~ ASIAN
       2 AB12345 BRA     BRA-1  id-105  37.8 F     ARM A A: Drug~ ARM A   A: Dr~ ASIAN
       3 AB12345 BRA     BRA-1  id-105  37.8 F     ARM A A: Drug~ ARM A   A: Dr~ ASIAN
       4 AB12345 BRA     BRA-1  id-171  29.8 F     ARM B B: Plac~ ARM B   B: Pl~ ASIAN
       5 AB12345 BRA     BRA-1  id-171  29.8 F     ARM B B: Plac~ ARM B   B: Pl~ ASIAN
       6 AB12345 BRA     BRA-1  id-171  29.8 F     ARM B B: Plac~ ARM B   B: Pl~ ASIAN
       7 AB12345 BRA     BRA-1  id-177  38.9 F     ARM B B: Plac~ ARM B   B: Pl~ ASIAN
       8 AB12345 BRA     BRA-1  id-177  38.9 F     ARM B B: Plac~ ARM B   B: Pl~ ASIAN
       9 AB12345 BRA     BRA-1  id-177  38.9 F     ARM B B: Plac~ ARM B   B: Pl~ ASIAN
      10 AB12345 BRA     BRA-1  id-23   41.3 F     ARM A A: Drug~ ARM A   A: Dr~ AMER~
      # ... with 590 more rows, 40 more variables: TRTSDTM <dttm>, TRTEDTM <dttm>,
      #   EOSDY <dbl>, STRATA1 <fct>, STRATA2 <fct>, BMRKR1 <dbl>, BMRKR2 <fct>,
      #   REGION1 <fct>, SAFFL <fct>, USUBJID <chr>, PARAM <fct>, AVISIT <fct>,
      #   AVAL <dbl>, LBCAT <fct>, PARAMCD <chr>, AVALU <fct>, AVISITN <dbl>,
      #   ABLFL2 <chr>, ABLFL <chr>, BASE <dbl>, BASETYPE <chr>, ANRIND <fct>,
      #   ANRLO <dbl>, ANRHI <dbl>, DTYPE <lgl>, ATOXGR <fct>, BTOXGR <fct>,
      #   ATOXDSCL <chr>, ATOXDSCH <chr>, ADTM <dttm>, ASPID <int>, LBSEQ <int>, ...
